%YAML 1.1
%TAG !u! tag:unity3d.com,2011:
--- !u!1045 &1
EditorBuildSettings:
  m_ObjectHideFlags: 0
  serializedVersion: 2
  m_Scenes:
  - enabled: 0
    path: 
    guid: 00000000000000000000000000000000
  - enabled: 1
    path: Assets/Scenes/MainMenu.unity
    guid: aa80fe9c06d03d146b0495a0535635a3
  - enabled: 1
    path: Assets/Scenes/Game.unity
    guid: c012097e80eb5f94faaaf4f7516fde85
  - enabled: 1
    path: Assets/Scenes/Garage.unity
    guid: f95fa3052d64e9b4798ae324448ab14b
  m_configObjects: {}
